[
  {
    "name": "Julian Edwin Adderley",
    "nicknames": "Cannonball Adderley",
    "image": "<image src='http://cps-static.rovicorp.com/3/JPG_400/MI0001/334/MI0001334336.jpg?partner=allrovi.com' style='margin: 0 auto;'></image>",
    "birth": "September 15, 1928",
    "death": "August 8, 1975",
    "bio": "Jazz musician Cannonball Adderley was born Julian Edwin Adderley in Tampa, Florida, on September 15, 1928. He attended the U.S. Navy School of Music before moving to New York City in the 1950s. He eventually played alto sax with John Coltrane and Miles Davis, drawing comparisons to his idol, Charlie Parker. Critics and audiences alike adored Adderley’s upbeat, quicksilver-fast sounds, and his plethora of albums included Know What I Mean? (1961) and The Soul Zodiac (1972). He died on August 8, 1975.",
    "url": "<a href='http://www.biography.com/people/cannonball-adderley-9176317' target='_blank'>Biography.com</a>"
  },
  {
    "name": "Benny Carter",
    "nicknames": "N/A",
    "image": "<image src='https://upload.wikimedia.org/wikipedia/commons/thumb/d/d3/Benny_Carter.jpg/330px-Benny_Carter.jpg' style='margin: 0 auto;'></image>",
    "birth": "August 8, 1907",
    "death": "July 12, 2003",
    "bio": "Benny Carter was best known as a Jazz saxophonist and composer from the 1930's to the 1990's. Following an attempt at Wilberforce College, Carter joined a series a big bands and learned the trumpet along the way. He would eventually settle down in Los Angeles, working on many film and television compositions. ",
    "url": "<a href='http://www.biography.com/people/benny-carter-9239852' target='_blank'>Biography.com</a>"
  },
  {
    "name": "John Coltrane",
    "nicknames": "N/A",
    "image": "<image src='https://upload.wikimedia.org/wikipedia/commons/thumb/6/66/John_Coltrane_1963.jpg/330px-John_Coltrane_1963.jpg' style='margin: 0 auto;'></image>",
    "birth": "September 23, 1926",
    "death": "July 17, 1967",
    "bio": "John Coltrane was born on September 23, 1926, in Hamlet, North Carolina. During the 1940s and '50s, he continued to develop his craft as a saxophonist and composer, working with famed musicians/bandleaders Dizzy Gillespie, Duke Ellington and Miles Davis. Coltrane turned the jazz world on its head with technically marvelous, innovative playing that was thrillingly dense and fluid in its understanding of the genre; his virtuosity and vision could be heard on the now revered albums Giant Steps, My Favorite Things and A Love Supreme, among others. He died from liver cancer at 40 years old on July 17, 1967, in Huntington, Long Island, New York.",
    "url": "<a href='http://www.biography.com/people/john-coltrane-9254106' target='_blank'>Biography.com</a>"
  },
  {
    "name": "Dexter Gordon",
    "nicknames": "The Sound, Long Tall Dexter",
    "image": "<image src='https://upload.wikimedia.org/wikipedia/commons/thumb/f/fa/Dexter_Gordon1.jpg/330px-Dexter_Gordon1.jpg' style='margin: 0 auto;'></image>",
    "birth": "February 27, 1923",
    "death": "April 25, 1990",
    "bio": "Dexter Gordon was born in Los Angeles, California, on February 27, 1923. He took up the saxophone as a teenager and began playing with prominent jazz ensembles. Gordon became known as one of the premier tenor saxophonists in bebop, recording classic albums such as Go and collaborating with players like Charlie Parker and Charles Mingus. Gordon died in Philadelphia, Pennsylvania, on April 25, 1990.",
    "url": "<a href='http://www.biography.com/people/dexter-gordon-37899' target='_blank'>Biography.com</a>"
  },
  {
    "name": "Kenneth Bruce Gorelick",
    "nicknames": "Kenny G, Kenneth Gorelick, Kenny Gorelick",
    "image": "<image src='https://upload.wikimedia.org/wikipedia/commons/thumb/f/f4/KennyGHWOFMay2013.jpg/330px-KennyGHWOFMay2013.jpg' style='margin: 0 auto;'></image>",
    "birth": "June 5, 1956",
    "death": "N/A",
    "bio": "Saxophonist Kenny G was born in Seattle, Washington, in 1956. He began playing professionally at age 17, when he performed with Barry White and his Love Unlimited Orchestra. Kenny G released his debut album in 1982, and rose to international fame following the 1986 release of Duotones. Later albums, including Breathless and Miracles, helped make him one of the top-selling artists of all time. Kenny G also won a Grammy Award in 1994, and at one point held the world record for the longest sustained note on a sax.",
    "url": "<a href='http://www.biography.com/people/kenny-g-21212793' target='_blank'>Biography.com</a>"
  },
  {
    "name": "Woody Herman",
    "nicknames": "N/A",
    "image": "<image src='https://upload.wikimedia.org/wikipedia/commons/thumb/3/3e/Woody_Herman_1949.JPG/330px-Woody_Herman_1949.JPG' style='margin: 0 auto;'></image>",
    "birth": "May 16, 1913",
    "death": "October 29, 1987",
    "bio": "Woody Herman formed his first band in 1936. Known as \"The Band That Plays the Blues,\" the group had a hit in 1939 with \"Woodchopper's Ball.\" His 1940s bands, the Thundering Herds, evolved into powerful and colorful ensembles that combined a light rhythm-section sound with explosive, forward-looking arrangements. He led his bands almost continuously for more than 50 years.",
    "url": "<a href='http://www.biography.com/people/woody-herman-9336339' target='_blank'>Biography.com</a>"
  },
  {
    "name": "Johnny Hodges",
    "nicknames": "Jeep, Rabbit",
    "image": "<image src='https://upload.wikimedia.org/wikipedia/commons/thumb/b/b0/Johnny_Hodges_and_Al_Sears%2C_Aquarium%2C_New_York%2C%2C_ca._Nov._1946_%28William_P._Gottlieb_04191%29.jpg/330px-Johnny_Hodges_and_Al_Sears%2C_Aquarium%2C_New_York%2C%2C_ca._Nov._1946_%28William_P._Gottlieb_04191%29.jpg' style='margin: 0 auto;'></image>",
    "birth": "July 25, 1906",
    "death": "May 11, 1970",
    "bio": "Johnny Hodges was born July 25, 1906 in Cambridge, Massachusetts. He took up the soprano saxophone at 14. He worked in Boston and New York during the mid-1920s, playing in bands led by Lloyd Scott, Chick Webb, Bobby Sawyer, Luckey Roberts, and Bechet. He joined Duke Ellington's orchestra in 1928 and was the band's most-featured soloist for the next four decades. In 1951 he formed his own combo.",
    "url": "<a href='http://www.biography.com/people/johnny-hodges-9340825' target='_blank'>Biography.com</a>"
  },
  {
    "name": "Charlie Parker",
    "nicknames": "Bird, Yardbird",
    "image": "<image src='https://upload.wikimedia.org/wikipedia/commons/thumb/6/61/Charlie_Parker%2C_Tommy_Potter%2C_Miles_Davis%2C_Max_Roach_%28Gottlieb_06941%29.jpg/330px-Charlie_Parker%2C_Tommy_Potter%2C_Miles_Davis%2C_Max_Roach_%28Gottlieb_06941%29.jpg' style='margin: 0 auto;'></image>",
    "birth": "August 29, 1920",
    "death": "March 12, 1955",
    "bio": "Charlie Parker was born on August 29, 1920, in Kansas City, Kansas. From 1935 to 1939, he played the Missouri nightclub scene with local jazz and blues bands. In 1945 he led his own group while performing with Dizzy Gillespie on the side. Together they invented bebop. In 1949, Parker made his European debut, giving his last performance several years later. He died a week later on March 12, 1955, in New York City.",
    "url": "<a href='http://www.biography.com/people/charlie-parker-9433413' target='_blank'>Biography.com</a>"
  },
  {
    "name": "Sonny Rollins",
    "nicknames": "N/A",
    "image": "<image src='https://upload.wikimedia.org/wikipedia/commons/thumb/4/40/Sonny_Rollins_2011.jpg/330px-Sonny_Rollins_2011.jpg' style='margin: 0 auto;'></image>",
    "birth": "September 7, 1930 ",
    "death": "N/A",
    "bio": "Sonny Rollins was born on September 7, 1930 in New York City. After trying out piano, Rollins picked up the tenor saxophone and never put it down. In 1949, he recorded with Miles Davis and through the 1950s, composed and recorded \"Oleo\" and \"Airegin.\" He also struggled with heroin addiction and served time in jail. After quitting, he went on to greater success.",
    "url": "<a href='http://www.biography.com/people/sonny-rollins-9462811' target='_blank'>Biography.com</a>"
  },
  {
    "name": "Lester Young",
    "nicknames": "N/A",
    "image": "<image src='https://upload.wikimedia.org/wikipedia/commons/thumb/c/c1/Lester-Young-LIFE-1944.jpg/330px-Lester-Young-LIFE-1944.jpg' style='margin: 0 auto;'></image>",
    "birth": "August 27, 1909",
    "death": "March 15, 1959",
    "bio": "The impact of Lester Young’s style was so broad that he has been cited as a favorite by such diverse modern jazz figures as Charlie Parker, Stan Getz, and John Coltrane. Much of the West Coast “cool” style was a product of Lester Young's approach. He was so important that singer Billie Holiday called him president of tenor saxophonists, and he was known thereafter as Prez.",
    "url": "<a href='http://www.biography.com/people/lester-young-9539541' target='_blank'>Biography.com</a>"
  }
]